\contentsline {chapter}{\numberline {1}Intorduction}{1}{chapter.1}% 
\contentsline {chapter}{\numberline {2}Hardware And Setup}{3}{chapter.2}% 
\contentsline {section}{\numberline {2.1}Hardware requirements}{3}{section.2.1}% 
\contentsline {section}{\numberline {2.2}EQ environment setup}{3}{section.2.2}% 
\contentsline {section}{\numberline {2.3}Real-car speaker position}{5}{section.2.3}% 
\contentsline {section}{\numberline {2.4}Real-car microphone position}{5}{section.2.4}% 
\contentsline {chapter}{\numberline {3}UI setting}{7}{chapter.3}% 
\contentsline {chapter}{\numberline {4}Main Menu}{8}{chapter.4}% 
\contentsline {section}{\numberline {4.1}Soundcard and Calibration}{8}{section.4.1}% 
\contentsline {section}{\numberline {4.2}Setup}{9}{section.4.2}% 
\contentsline {section}{\numberline {4.3}Option}{10}{section.4.3}% 
\contentsline {section}{\numberline {4.4}License}{11}{section.4.4}% 
\contentsline {section}{\numberline {4.5}Help}{11}{section.4.5}% 
\contentsline {chapter}{\numberline {5}EQ}{13}{chapter.5}% 
\contentsline {section}{\numberline {5.1}Start}{13}{section.5.1}% 
\contentsline {section}{\numberline {5.2}Export}{14}{section.5.2}% 
